<?xml version="1.0" encoding="utf-8"?>
<!-- Generator: Adobe Illustrator 19.1.1, SVG Export Plug-In . SVG Version: 6.00 Build 0)  -->
<svg version="1.1" id="Layer_1" xmlns="http://www.w3.org/2000/svg" xmlns:xlink="http://www.w3.org/1999/xlink" x="0px" y="0px"
	 viewBox="0 0 352.7 124.2" style="enable-background:new 0 0 352.7 124.2;" xml:space="preserve">
<style type="text/css">
	.st0{fill:#12100B;}
	.st1{fill-rule:evenodd;clip-rule:evenodd;fill:url(#SVGID_1_);}
	.st2{filter:url(#Adobe_OpacityMaskFilter);}
	.st3{fill-rule:evenodd;clip-rule:evenodd;fill:url(#SVGID_3_);}
	.st4{mask:url(#SVGID_2_);fill-rule:evenodd;clip-rule:evenodd;}
	.st5{fill:url(#SVGID_4_);}
	.st6{fill:url(#SVGID_5_);}
	.st7{fill:url(#SVGID_6_);}
	.st8{fill:url(#SVGID_7_);}
	.st9{filter:url(#Adobe_OpacityMaskFilter_1_);}
	.st10{fill:url(#SVGID_9_);}
	.st11{mask:url(#SVGID_8_);fill:url(#SVGID_10_);}
	.st12{fill:url(#SVGID_11_);}
	.st13{filter:url(#Adobe_OpacityMaskFilter_2_);}
	.st14{fill-rule:evenodd;clip-rule:evenodd;fill:url(#SVGID_13_);}
	.st15{opacity:0.5;mask:url(#SVGID_12_);fill-rule:evenodd;clip-rule:evenodd;fill:url(#SVGID_14_);}
	.st16{fill-rule:evenodd;clip-rule:evenodd;fill:url(#SVGID_15_);}
	.st17{filter:url(#Adobe_OpacityMaskFilter_3_);}
	.st18{filter:url(#Adobe_OpacityMaskFilter_4_);}
	.st19{fill:#FFFFFF;}
	.st20{opacity:0.9;mask:url(#SVGID_16_);fill:url(#SVGID_17_);}
</style>
<g>
	<path class="st0" d="M352.7,107.6c0,9.1-7.4,16.6-16.6,16.6H16.6c-9.1,0-16.6-7.4-16.6-16.6V16.6C0,7.4,7.4,0,16.6,0h319.6
		c9.1,0,16.6,7.4,16.6,16.6V107.6z"/>
	<g>
		<path d="M111.5,62c0,27.5-22.3,49.8-49.8,49.8c-27.5,0-49.9-22.3-49.9-49.8c0-27.5,22.3-49.9,49.9-49.9
			C89.2,12.1,111.5,34.4,111.5,62z"/>
		<linearGradient id="SVGID_1_" gradientUnits="userSpaceOnUse" x1="62.0361" y1="23.202" x2="62.0361" y2="117.1403">
			<stop  offset="0" style="stop-color:#757272"/>
			<stop  offset="0.1452" style="stop-color:#575554"/>
			<stop  offset="0.4629" style="stop-color:#10100E"/>
			<stop  offset="0.5104" style="stop-color:#000000"/>
		</linearGradient>
		<path class="st1" d="M62,16.4c25.2,0,45.7,20.5,45.7,45.7c0,25.2-20.4,45.7-45.7,45.7c-25.2,0-45.7-20.5-45.7-45.7
			C16.4,36.9,36.8,16.4,62,16.4z"/>
		<defs>
			<filter id="Adobe_OpacityMaskFilter" filterUnits="userSpaceOnUse" x="16.4" y="16.5" width="91.2" height="91.3">
				<feColorMatrix  type="matrix" values="1 0 0 0 0  0 1 0 0 0  0 0 1 0 0  0 0 0 1 0"/>
			</filter>
		</defs>
		<mask maskUnits="userSpaceOnUse" x="16.4" y="16.5" width="91.2" height="91.3" id="SVGID_2_">
			<g class="st2">
				<linearGradient id="SVGID_3_" gradientUnits="userSpaceOnUse" x1="62.032" y1="74.7633" x2="62.032" y2="89.5205">
					<stop  offset="0" style="stop-color:#FFFFFF"/>
					<stop  offset="1.112229e-002" style="stop-color:#F9F9F9"/>
					<stop  offset="0.1293" style="stop-color:#C0C0C0"/>
					<stop  offset="0.2507" style="stop-color:#8C8C8C"/>
					<stop  offset="0.3726" style="stop-color:#616161"/>
					<stop  offset="0.495" style="stop-color:#3E3E3E"/>
					<stop  offset="0.6183" style="stop-color:#232323"/>
					<stop  offset="0.7427" style="stop-color:#0F0F0F"/>
					<stop  offset="0.8689" style="stop-color:#040404"/>
					<stop  offset="1" style="stop-color:#000000"/>
				</linearGradient>
				<path class="st3" d="M62,16.5c-25.2,0-45.6,20.4-45.6,45.6c0,25.2,20.4,45.6,45.6,45.6c25.2,0,45.6-20.4,45.6-45.6
					C107.6,36.9,87.2,16.5,62,16.5z M62,106.6c-24.6,0-44.4-19.9-44.4-44.5c0-24.6,19.9-44.5,44.4-44.5c24.5,0,44.4,19.9,44.4,44.5
					C106.5,86.7,86.6,106.6,62,106.6z"/>
			</g>
		</mask>
		<path class="st4" d="M62,16.5c-25.2,0-45.6,20.4-45.6,45.6c0,25.2,20.4,45.6,45.6,45.6c25.2,0,45.6-20.4,45.6-45.6
			C107.6,36.9,87.2,16.5,62,16.5z M62,106.6c-24.6,0-44.4-19.9-44.4-44.5c0-24.6,19.9-44.5,44.4-44.5c24.5,0,44.4,19.9,44.4,44.5
			C106.5,86.7,86.6,106.6,62,106.6z"/>
		<linearGradient id="SVGID_4_" gradientUnits="userSpaceOnUse" x1="62.0396" y1="15.8222" x2="62.0396" y2="60.5789">
			<stop  offset="0" style="stop-color:#9A9898"/>
			<stop  offset="1" style="stop-color:#000000"/>
		</linearGradient>
		<path class="st5" d="M62,16.5c23.9,0,43.5,18.4,45.4,41.9l0.7,0.3c-1.8-24-21.7-42.9-46.1-42.9c-24.4,0-44.3,18.8-46.1,42.7
			l0.7-0.4C18.6,34.8,38.2,16.5,62,16.5z"/>
		<linearGradient id="SVGID_5_" gradientUnits="userSpaceOnUse" x1="62.0357" y1="109.6626" x2="62.0357" y2="78.4811">
			<stop  offset="0" style="stop-color:#FFFFFF"/>
			<stop  offset="1" style="stop-color:#A7A5A5"/>
		</linearGradient>
		<path class="st6" d="M107.5,58.4c0.1,1.2,0.2,2.5,0.2,3.8c0,25.2-20.4,45.6-45.6,45.6c-25.2,0-45.6-20.4-45.6-45.6
			c0-1.3,0.1-2.7,0.2-4l-0.7,0.4c-0.1,1.2-0.1,2.4-0.1,3.6c0,25.6,20.7,46.3,46.3,46.3c25.6,0,46.3-20.7,46.3-46.3
			c0-1.2,0-2.3-0.1-3.4L107.5,58.4z"/>
		<linearGradient id="SVGID_6_" gradientUnits="userSpaceOnUse" x1="62.0369" y1="50.2425" x2="62.0369" y2="-16.6479">
			<stop  offset="0" style="stop-color:#D1D0D0"/>
			<stop  offset="0.5" style="stop-color:#F0EFEF"/>
			<stop  offset="1" style="stop-color:#D1D0D0"/>
		</linearGradient>
		<path class="st7" d="M15.8,62.1c0-25.6,20.7-46.3,46.3-46.3c25.6,0,46.3,20.7,46.3,46.3c0,2.4-0.2,4.7-0.5,7l5.3-3.5
			c0.1-1.2,0.1-2.3,0.1-3.5c0-28.3-22.9-51.3-51.2-51.3c-28.3,0-51.2,22.9-51.2,51.3c0,1.2,0,2.4,0.1,3.6l5.3,3.5
			C15.9,66.9,15.8,64.6,15.8,62.1z"/>
		<linearGradient id="SVGID_7_" gradientUnits="userSpaceOnUse" x1="62.0374" y1="113.9018" x2="62.0374" y2="81.8077">
			<stop  offset="0" style="stop-color:#9A9898"/>
			<stop  offset="1" style="stop-color:#1D1C1A"/>
		</linearGradient>
		<path class="st8" d="M107.8,69.1c-3.4,22.3-22.6,39.3-45.7,39.3c-23.1,0-42.3-17-45.7-39.2L11,65.7c1.8,26.6,24,47.7,51.1,47.7
			c27.1,0,49.3-21.1,51.1-47.7L107.8,69.1z"/>
		<defs>
			<filter id="Adobe_OpacityMaskFilter_1_" filterUnits="userSpaceOnUse" x="11" y="65.7" width="102.2" height="47.7">
				<feColorMatrix  type="matrix" values="1 0 0 0 0  0 1 0 0 0  0 0 1 0 0  0 0 0 1 0"/>
			</filter>
		</defs>
		<mask maskUnits="userSpaceOnUse" x="11" y="65.7" width="102.2" height="47.7" id="SVGID_8_">
			<g class="st9">
				<linearGradient id="SVGID_9_" gradientUnits="userSpaceOnUse" x1="61.3244" y1="78.6319" x2="18.1247" y2="54.6476">
					<stop  offset="0" style="stop-color:#9D9D9C"/>
					<stop  offset="5.327261e-003" style="stop-color:#969595"/>
					<stop  offset="3.377156e-002" style="stop-color:#706F6F"/>
					<stop  offset="6.142737e-002" style="stop-color:#4F4F4E"/>
					<stop  offset="8.773627e-002" style="stop-color:#353534"/>
					<stop  offset="0.1121" style="stop-color:#131312"/>
					<stop  offset="0.1328" style="stop-color:#000000"/>
				</linearGradient>
				<path class="st10" d="M11,65.7c1.8,26.6,24,47.7,51.1,47.7c27.1,0,49.3-21.1,51.1-47.7l-0.4,0.3c-2,26.3-23.9,47-50.7,47
					c-26.7,0-48.7-20.7-50.7-47L11,65.7z"/>
			</g>
		</mask>
		<linearGradient id="SVGID_10_" gradientUnits="userSpaceOnUse" x1="10.958" y1="89.5238" x2="113.1187" y2="89.5238">
			<stop  offset="0" style="stop-color:#FFFFFF"/>
			<stop  offset="1.237862e-002" style="stop-color:#FDFDFD"/>
			<stop  offset="0.1808" style="stop-color:#E5E5E5"/>
			<stop  offset="0.3421" style="stop-color:#D4D3D3"/>
			<stop  offset="0.4917" style="stop-color:#C8C8C8"/>
			<stop  offset="0.6183" style="stop-color:#C5C4C4"/>
			<stop  offset="0.8382" style="stop-color:#575756"/>
			<stop  offset="1" style="stop-color:#575756"/>
		</linearGradient>
		<path class="st11" d="M11,65.7c1.8,26.6,24,47.7,51.1,47.7c27.1,0,49.3-21.1,51.1-47.7l-0.4,0.3c-2,26.3-23.9,47-50.7,47
			c-26.7,0-48.7-20.7-50.7-47L11,65.7z"/>
		<linearGradient id="SVGID_11_" gradientUnits="userSpaceOnUse" x1="10.8335" y1="38.4479" x2="113.2403" y2="38.4479">
			<stop  offset="0" style="stop-color:#D2D2D2"/>
			<stop  offset="2.890272e-002" style="stop-color:#DADADA"/>
			<stop  offset="0.1129" style="stop-color:#EBEBEB"/>
			<stop  offset="0.2175" style="stop-color:#F6F6F6"/>
			<stop  offset="0.3643" style="stop-color:#FDFDFD"/>
			<stop  offset="0.7718" style="stop-color:#FFFFFF"/>
			<stop  offset="1" style="stop-color:#D9D9D9"/>
		</linearGradient>
		<path class="st12" d="M11.4,66c-0.1-1.3-0.1-2.6-0.1-3.9c0-28,22.8-50.8,50.8-50.8c28,0,50.8,22.8,50.8,50.8c0,1.3,0,2.5-0.1,3.8
			l0.4-0.3c0.1-1.2,0.1-2.3,0.1-3.5c0-28.3-22.9-51.3-51.2-51.3c-28.3,0-51.2,22.9-51.2,51.3c0,1.2,0,2.4,0.1,3.6L11.4,66z"/>
		<defs>
			<filter id="Adobe_OpacityMaskFilter_2_" filterUnits="userSpaceOnUse" x="16.4" y="16.4" width="91.3" height="91.4">
				
					<feColorMatrix  type="matrix" values="-1 0 0 0 1  0 -1 0 0 1  0 0 -1 0 1  0 0 0 1 0" color-interpolation-filters="sRGB" result="source"/>
				<feFlood  style="flood-color:white;flood-opacity:1" result="back"/>
				<feBlend  in="source" in2="back" mode="normal"/>
			</filter>
		</defs>
		<mask maskUnits="userSpaceOnUse" x="16.4" y="16.4" width="91.3" height="91.4" id="SVGID_12_">
			<g class="st13">
				<linearGradient id="SVGID_13_" gradientUnits="userSpaceOnUse" x1="62.0361" y1="75.0962" x2="62.0361" y2="98.9198">
					<stop  offset="0" style="stop-color:#FFFFFF"/>
					<stop  offset="0.1877" style="stop-color:#CCCBCB"/>
					<stop  offset="0.6076" style="stop-color:#605E5D"/>
					<stop  offset="1" style="stop-color:#000000"/>
				</linearGradient>
				<path class="st14" d="M62,107.8c25.2,0,45.7-20.5,45.7-45.7c0-25.2-20.4-45.7-45.7-45.7c-25.2,0-45.7,20.5-45.7,45.7
					C16.4,87.3,36.8,107.8,62,107.8z"/>
			</g>
		</mask>
		<radialGradient id="SVGID_14_" cx="60.1668" cy="121.8668" r="39.5557" gradientUnits="userSpaceOnUse">
			<stop  offset="0" style="stop-color:#757272"/>
			<stop  offset="0.3582" style="stop-color:#4E4C4B"/>
			<stop  offset="1" style="stop-color:#000000"/>
		</radialGradient>
		<path class="st15" d="M62,107.8c25.2,0,45.7-20.5,45.7-45.7c0-25.2-20.4-45.7-45.7-45.7c-25.2,0-45.7,20.5-45.7,45.7
			C16.4,87.3,36.8,107.8,62,107.8z"/>
		<radialGradient id="SVGID_15_" cx="45.2312" cy="42.0124" r="64.3047" gradientUnits="userSpaceOnUse">
			<stop  offset="0" style="stop-color:#FFFFFF"/>
			<stop  offset="1" style="stop-color:#DBDADB"/>
		</radialGradient>
		<path class="st16" d="M42.8,51.1c-4.2,0-8.8,0-8.8,0l2.4-11.1c0,0,6.2,0,8.4,0c5.5,0,6.8,2.7,6.8,4.8
			C51.6,47.9,49.6,51.1,42.8,51.1z M65.5,51.1c-4.2,0-8.8,0-8.8,0l2.4-11.1c0,0,6.2,0,8.4,0c5.5,0,6.8,2.7,6.8,4.8
			C74.3,47.9,72.4,51.1,65.5,51.1z M39.7,67.8c-4.2,0-8.8,0-8.8,0l2.4-11.1c0,0,6.2,0,8.4,0c5.5,0,6.8,2.7,6.8,4.8
			C48.6,64.6,46.6,67.8,39.7,67.8z M62.5,67.8c-4.3,0-8.8,0-8.8,0l2.4-11.1c0,0,6.2,0,8.4,0c5.5,0,6.8,2.7,6.8,4.8
			C71.3,64.6,69.3,67.8,62.5,67.8z M86.2,61c-4.2,0-8.8,0-8.8,0L79.8,50c0,0,6.2,0,8.4,0c5.5,0,6.8,2.7,6.8,4.8
			C95,57.8,93.1,61,86.2,61z M82.9,78.4c-4.2,0-8.8,0-8.8,0l2.4-11.1c0,0,6.2,0,8.4,0c5.5,0,6.8,2.7,6.8,4.8
			C91.7,75.2,89.8,78.4,82.9,78.4z M59.2,85.2c-4.2,0-8.8,0-8.8,0l2.4-11.1c0,0,6.2,0,8.4,0c5.5,0,6.8,2.7,6.8,4.8
			C68,81.9,66.1,85.2,59.2,85.2z"/>
		<defs>
			<filter id="Adobe_OpacityMaskFilter_3_" filterUnits="userSpaceOnUse">
				<feColorMatrix  type="matrix" values="1 0 0 0 0  0 1 0 0 0  0 0 1 0 0  0 0 0 1 0"/>
			</filter>
		</defs>
		<mask maskUnits="userSpaceOnUse" id="SVGID_16_">
			<g class="st17">
				<defs>
					<filter id="Adobe_OpacityMaskFilter_4_" filterUnits="userSpaceOnUse" x="-6.6" y="1.6" width="61.1" height="61.1">
						<feFlood  style="flood-color:white;flood-opacity:1" result="back"/>
						<feBlend  in="SourceGraphic" in2="back" mode="normal"/>
					</filter>
				</defs>
				<mask maskUnits="userSpaceOnUse" x="-6.6" y="1.6" width="61.1" height="61.1" id="SVGID_16_">
					<g class="st18">
						<rect x="-6.6" y="1.6" class="st19" width="61.1" height="61.1"/>
					</g>
				</mask>
				<radialGradient id="SVGID_17_" cx="23.9754" cy="32.167" r="30.5599" gradientUnits="userSpaceOnUse">
					<stop  offset="0" style="stop-color:#FFFFFF"/>
					<stop  offset="4.791427e-002" style="stop-color:#DFDDDE"/>
					<stop  offset="0.152" style="stop-color:#A4A2A2"/>
					<stop  offset="0.2603" style="stop-color:#757372"/>
					<stop  offset="0.3706" style="stop-color:#52504F"/>
					<stop  offset="0.4835" style="stop-color:#373534"/>
					<stop  offset="0.5999" style="stop-color:#222120"/>
					<stop  offset="0.7209" style="stop-color:#12110F"/>
					<stop  offset="0.8498" style="stop-color:#040403"/>
					<stop  offset="1" style="stop-color:#000000"/>
				</radialGradient>
				<rect x="-6.6" y="1.6" class="st20" width="61.1" height="61.1"/>
			</g>
		</mask>
		<g>
		</g>
	</g>
	<g>
		<path class="st19" d="M130.5,67.2V37h8.5c4.1,0,7.1,0.6,8.9,1.9c1.9,1.2,2.8,3.2,2.8,5.8c0,3.1-1.5,5.3-4.5,6.5v0.1
			c1.1,0.4,2,0.9,2.7,1.4c0.7,0.5,1.3,1.1,1.7,1.8c0.4,0.6,0.7,1.3,0.9,2.1c0.2,0.8,0.3,1.5,0.3,2.4c0,1.7-0.3,3.1-1,4.2
			c-0.6,1.1-1.5,1.9-2.6,2.5c-1.1,0.6-2.4,1-3.8,1.3c-1.4,0.2-2.9,0.4-4.5,0.4H130.5z M139.3,50c0.7,0,1.5,0,2.4-0.1
			c0.9-0.1,1.7-0.3,2.5-0.6c0.8-0.3,1.4-0.8,1.9-1.5c0.5-0.7,0.8-1.6,0.8-2.7c0-1.1-0.3-1.9-0.8-2.5c-0.5-0.6-1.2-1.1-1.9-1.4
			c-0.8-0.3-1.7-0.5-2.6-0.6c-1-0.1-1.9-0.1-2.7-0.1h-4.3V50H139.3z M140,63.8c2.8,0,4.8-0.4,6.1-1.2c1.3-0.8,1.9-2.1,1.9-3.9
			c0-1.9-0.6-3.3-1.9-4.2c-1.3-0.9-3.1-1.3-5.6-1.3h-6.1v10.7H140z"/>
		<path class="st19" d="M156,67.2V37h3.6v30.2H156z"/>
		<path class="st19" d="M177.4,67.2l-0.3-2.6c-1.2,1-2.4,1.7-3.7,2.3c-1.3,0.5-2.6,0.8-3.9,0.8c-1.9,0-3.4-0.5-4.5-1.6
			c-1.1-1.1-1.6-2.5-1.6-4.3c0-1.3,0.3-2.4,0.9-3.5c0.6-1,1.5-1.9,2.8-2.6c1.1-0.6,2.5-1.1,4.3-1.6c1.8-0.5,3.7-0.9,5.7-1.3
			c0.2-1.9-0.1-3.2-0.8-4c-0.7-0.7-1.9-1.1-3.5-1.1c-1.3,0-2.4,0.3-3.3,0.8c-0.9,0.5-1.7,1.3-2.5,2.5l-2.6-1.6
			c1-1.6,2.2-2.8,3.6-3.5c1.4-0.7,3-1.1,4.9-1.1c2.7,0,4.7,0.6,5.9,1.7c1.2,1.2,1.9,3,1.9,5.4v11.8l0.3,3.4H177.4z M177,55.5
			c-2,0.4-3.6,0.8-4.9,1.1c-1.2,0.4-2.3,0.8-3.1,1.2c-0.6,0.4-1.1,0.9-1.5,1.5c-0.3,0.6-0.5,1.3-0.5,2.1c0,1,0.3,1.8,0.9,2.4
			c0.6,0.6,1.4,0.9,2.5,0.9c1.2,0,2.3-0.3,3.5-0.8c1.2-0.6,2.2-1.3,3-2.3V55.5z"/>
		<path class="st19" d="M202.7,62.1c-2,3.8-5,5.6-9,5.6c-1.5,0-2.8-0.3-4-0.8c-1.2-0.5-2.1-1.3-2.9-2.3c-0.8-1-1.4-2.2-1.9-3.6
			c-0.4-1.4-0.7-3-0.7-4.7c0-3.6,0.8-6.5,2.5-8.5c1.7-2,4-3,7-3c2,0,3.8,0.5,5.2,1.4c1.4,0.9,2.5,2.4,3.3,4.5l-3,1.2
			c-0.6-1.4-1.3-2.5-2.2-3.1c-0.9-0.6-1.9-0.9-3.2-0.9c-1.9,0-3.3,0.7-4.4,2.2c-1.1,1.5-1.7,3.5-1.7,6.2c0,2.7,0.5,4.8,1.6,6.2
			c1.1,1.4,2.6,2.1,4.5,2.1c1.3,0,2.4-0.3,3.3-1c0.9-0.6,1.8-1.7,2.6-3.2L202.7,62.1z"/>
		<path class="st19" d="M220,67.2l-6.3-11.2l-4,4.4v6.8h-3.5V37h3.5V56h0.1l9-10.5h4l-6.8,7.9l7.9,13.9H220z"/>
		<path class="st19" d="M226.4,67.2V37h8.5c4.1,0,7.1,0.6,8.9,1.9c1.9,1.2,2.8,3.2,2.8,5.8c0,3.1-1.5,5.3-4.5,6.5v0.1
			c1.1,0.4,2,0.9,2.7,1.4c0.7,0.5,1.3,1.1,1.7,1.8c0.4,0.6,0.7,1.3,0.9,2.1c0.2,0.8,0.3,1.5,0.3,2.4c0,1.7-0.3,3.1-1,4.2
			c-0.6,1.1-1.5,1.9-2.6,2.5c-1.1,0.6-2.4,1-3.8,1.3c-1.4,0.2-2.9,0.4-4.5,0.4H226.4z M235.2,50c0.7,0,1.5,0,2.4-0.1
			c0.9-0.1,1.7-0.3,2.5-0.6c0.8-0.3,1.4-0.8,1.9-1.5c0.5-0.7,0.8-1.6,0.8-2.7c0-1.1-0.3-1.9-0.8-2.5c-0.5-0.6-1.2-1.1-1.9-1.4
			c-0.8-0.3-1.7-0.5-2.6-0.6c-1-0.1-1.9-0.1-2.7-0.1h-4.3V50H235.2z M235.9,63.8c2.8,0,4.8-0.4,6.1-1.2c1.3-0.8,1.9-2.1,1.9-3.9
			c0-1.9-0.6-3.3-1.9-4.2c-1.3-0.9-3.1-1.3-5.6-1.3h-6.1v10.7H235.9z"/>
		<path class="st19" d="M269,62.3c-1.1,2-2.4,3.4-3.9,4.2c-1.5,0.8-3.2,1.2-5.1,1.2c-1.5,0-2.8-0.3-3.9-0.8
			c-1.2-0.5-2.1-1.3-2.9-2.3c-0.8-1-1.4-2.2-1.8-3.6c-0.4-1.4-0.6-3-0.6-4.7c0-1.7,0.2-3.3,0.7-4.7c0.4-1.4,1.1-2.6,1.9-3.6
			c0.8-1,1.8-1.8,2.9-2.3c1.1-0.5,2.4-0.8,3.7-0.8c1.5,0,2.8,0.3,3.9,0.8c1.1,0.5,2.1,1.2,2.8,2.1c0.8,0.9,1.3,2,1.7,3.3
			c0.4,1.3,0.6,2.8,0.6,4.4c0,0.2,0,0.4,0,0.6c0,0.2,0,0.5,0,0.7h-14.7c0.1,2.4,0.6,4.4,1.5,5.7c0.9,1.4,2.4,2.1,4.4,2.1
			c1.3,0,2.4-0.3,3.4-0.9c1-0.6,1.9-1.6,2.6-3L269,62.3z M260.1,47.8c-0.9,0-1.6,0.2-2.3,0.5c-0.7,0.3-1.2,0.8-1.7,1.4
			c-0.5,0.6-0.8,1.2-1.1,2c-0.3,0.8-0.5,1.6-0.6,2.5h11.1c0-1.9-0.5-3.5-1.5-4.6C263.1,48.4,261.8,47.8,260.1,47.8z"/>
		<path class="st19" d="M272.6,67.2V45.4h3.4v4.1c0.9-1.7,1.9-2.8,3-3.6c1.1-0.7,2.3-1.1,3.6-1.1c0.1,0,0.3,0,0.3,0s0.2,0,0.3,0v3.5
			c-0.2,0-0.3,0-0.5,0c-0.1,0-0.3,0-0.3,0c-1.5,0-2.8,0.5-3.8,1.5c-1,1-1.9,2.3-2.5,3.7v13.5H272.6z"/>
		<path class="st19" d="M286.5,67.2V45.4h3.4v4.1c0.9-1.7,1.9-2.8,3-3.6c1.1-0.7,2.3-1.1,3.6-1.1c0.1,0,0.3,0,0.3,0
			c0.1,0,0.2,0,0.3,0v3.5c-0.2,0-0.3,0-0.5,0c-0.1,0-0.3,0-0.3,0c-1.5,0-2.8,0.5-3.8,1.5c-1,1-1.9,2.3-2.5,3.7v13.5H286.5z"/>
		<path class="st19" d="M309.5,70.6c-0.5,1.1-1,1.9-1.6,2.6c-0.6,0.6-1.3,1.1-2,1.4s-1.7,0.4-2.7,0.4c-1.1,0-2.1-0.1-2.9-0.3v-3
			c0.9,0.2,1.7,0.3,2.4,0.3c0.6,0,1.1-0.1,1.5-0.2c0.4-0.1,0.8-0.4,1.1-0.7c0.3-0.3,0.6-0.7,0.9-1.2c0.3-0.5,0.5-1.1,0.8-1.9
			l0.4-1.2l-7.7-21.3h4l5.5,16.3h0.1l5.3-16.3h3.7L311,66.6C310.5,68.2,310,69.5,309.5,70.6z"/>
	</g>
	<g>
		<path class="st19" d="M153.4,103.1l-5.3-22.9H148l-5.4,22.9h-4l-8-30.2h4.3l5.7,23.6h0.1l5.5-23.6h4l5.2,23.5h0.1l5.9-23.5h4
			l-8,30.2H153.4z"/>
		<path class="st19" d="M173.8,103.6c-1.4,0-2.7-0.3-3.9-0.8c-1.1-0.5-2.1-1.3-2.9-2.3c-0.8-1-1.4-2.2-1.9-3.6
			c-0.4-1.4-0.7-3-0.7-4.7c0-3.6,0.8-6.4,2.5-8.5c1.7-2,3.9-3,6.8-3c2.9,0,5.2,1,6.8,3c1.6,2,2.5,4.8,2.5,8.5c0,1.7-0.2,3.3-0.7,4.7
			c-0.4,1.4-1.1,2.6-1.9,3.6c-0.8,1-1.8,1.7-2.9,2.3C176.5,103.3,175.2,103.6,173.8,103.6z M173.8,100.6c1,0,1.8-0.2,2.5-0.6
			c0.7-0.4,1.3-1,1.8-1.7c0.5-0.7,0.8-1.6,1.1-2.6c0.2-1,0.4-2.2,0.4-3.4c0-1.3-0.1-2.4-0.3-3.5c-0.2-1-0.6-1.9-1.1-2.7
			c-0.5-0.7-1.1-1.3-1.8-1.7c-0.7-0.4-1.6-0.6-2.5-0.6c-1,0-1.8,0.2-2.5,0.6c-0.7,0.4-1.3,1-1.8,1.7c-0.5,0.7-0.8,1.6-1.1,2.7
			s-0.3,2.2-0.3,3.5c0,1.3,0.1,2.4,0.4,3.4c0.2,1,0.6,1.9,1.1,2.6c0.5,0.7,1.1,1.3,1.8,1.7C172,100.4,172.9,100.6,173.8,100.6z"/>
		<path class="st19" d="M186.4,103.1V81.3h3.4v4.1c0.9-1.7,1.9-2.8,3-3.6c1.1-0.7,2.3-1.1,3.6-1.1c0.1,0,0.3,0,0.3,0s0.2,0,0.3,0
			v3.5c-0.2,0-0.3,0-0.5,0c-0.1,0-0.3,0-0.3,0c-1.5,0-2.8,0.5-3.8,1.5c-1,1-1.9,2.3-2.5,3.7v13.5H186.4z"/>
		<path class="st19" d="M200.2,103.1V72.9h3.6v30.2H200.2z"/>
		<path class="st19" d="M223.6,103.1l-0.6-2.6c-1.1,1.1-2.2,1.8-3.2,2.3c-1.1,0.5-2.3,0.7-3.7,0.7c-1.3,0-2.5-0.3-3.5-0.8
			c-1-0.5-1.9-1.3-2.7-2.3c-0.7-1-1.3-2.2-1.7-3.5c-0.4-1.4-0.6-2.9-0.6-4.6c0-1.8,0.2-3.4,0.6-4.8c0.4-1.4,1-2.6,1.8-3.6
			c0.8-1,1.7-1.8,2.8-2.3c1.1-0.5,2.3-0.8,3.6-0.8c2.4,0,4.5,0.9,6.2,2.8V72.9h3.6v30.2H223.6z M222.7,87.3
			c-0.7-1.1-1.6-1.9-2.5-2.4c-1-0.6-2-0.8-3.1-0.8c-1.9,0-3.3,0.8-4.3,2.3s-1.5,3.6-1.5,6.2c0,2.5,0.5,4.5,1.6,5.9
			c1,1.4,2.5,2.1,4.3,2.1c1.1,0,2.1-0.3,3.2-0.9c1-0.6,1.9-1.4,2.5-2.4V87.3z"/>
	</g>
	<g>
		<path class="st19" d="M138.8,31.9v-1.3h0c-0.4,0.5-0.9,0.9-1.5,1.1c-0.6,0.2-1.2,0.3-1.9,0.3c-0.9,0-1.6-0.2-2.3-0.5
			c-0.7-0.3-1.2-0.8-1.7-1.4c-0.4-0.6-0.8-1.4-1-2.2c-0.2-0.9-0.3-1.9-0.3-3c0-1.1,0.1-2.1,0.4-3c0.3-0.9,0.6-1.6,1.1-2.2
			c0.5-0.6,1.1-1,1.8-1.4c0.7-0.3,1.5-0.5,2.4-0.5c1.4,0,2.5,0.3,3.3,1c0.8,0.6,1.4,1.7,1.7,3.1l-2.4,0.5c-0.2-0.9-0.6-1.5-1-1.8
			c-0.4-0.3-1-0.5-1.6-0.5c-0.9,0-1.7,0.4-2.2,1.2c-0.5,0.8-0.8,2-0.8,3.6c0,1.6,0.3,2.8,0.8,3.7c0.5,0.9,1.3,1.3,2.5,1.3
			c0.8,0,1.5-0.2,2-0.7c0.5-0.5,0.7-1.1,0.7-1.9c0-0.1,0-0.1,0-0.2c0-0.1,0-0.1,0-0.2h-2.7v-1.9h5v6.8H138.8z"/>
		<path class="st19" d="M151.3,29.6c-0.5,0.9-1.1,1.6-1.9,1.9c-0.7,0.4-1.5,0.5-2.4,0.5c-0.7,0-1.4-0.1-1.9-0.4
			c-0.5-0.3-1-0.6-1.3-1.1c-0.4-0.5-0.6-1-0.8-1.7c-0.2-0.6-0.3-1.3-0.3-2.1c0-0.8,0.1-1.5,0.3-2.1c0.2-0.6,0.5-1.2,0.9-1.6
			c0.4-0.4,0.8-0.8,1.4-1c0.5-0.2,1.1-0.4,1.8-0.4c1.4,0,2.5,0.5,3.2,1.3c0.7,0.9,1.1,2.1,1.1,3.6c0,0.1,0,0.2,0,0.3
			c0,0.1,0,0.2,0,0.4H145c0.1,0.9,0.2,1.6,0.6,2.1c0.3,0.5,0.9,0.8,1.7,0.8c0.5,0,1-0.1,1.3-0.4c0.4-0.2,0.7-0.6,1-1.2L151.3,29.6z
			 M147.1,23.5c-0.6,0-1.1,0.2-1.4,0.7c-0.3,0.4-0.6,1-0.7,1.7h4.1c0-0.7-0.2-1.3-0.5-1.7C148.2,23.7,147.7,23.5,147.1,23.5z"/>
		<path class="st19" d="M158,31.8c-0.3,0-0.6,0.1-0.8,0.1c-0.3,0-0.6,0-0.9,0c-0.5,0-0.9,0-1.2-0.1c-0.3-0.1-0.6-0.3-0.8-0.5
			c-0.2-0.2-0.4-0.5-0.5-0.9c-0.1-0.4-0.1-0.8-0.1-1.4v-5.4h-1.4V22h1.4v-3.3h2.3V22h2v1.8h-2v5.2c0,0.4,0.1,0.7,0.2,0.9
			c0.2,0.2,0.4,0.3,0.7,0.3c0.4,0,0.7,0,1.1-0.1V31.8z"/>
		<path class="st19" d="M164.1,20.4v-2.3h2.4v2.3H164.1z M164.2,31.9V22h2.3v9.9H164.2z"/>
		<path class="st19" d="M173.8,31.8c-0.3,0-0.6,0.1-0.8,0.1c-0.3,0-0.6,0-0.9,0c-0.5,0-0.9,0-1.2-0.1c-0.3-0.1-0.6-0.3-0.8-0.5
			c-0.2-0.2-0.4-0.5-0.5-0.9c-0.1-0.4-0.1-0.8-0.1-1.4v-5.4H168V22h1.4v-3.3h2.3V22h2v1.8h-2v5.2c0,0.4,0.1,0.7,0.2,0.9
			c0.2,0.2,0.4,0.3,0.7,0.3c0.4,0,0.7,0,1.1-0.1V31.8z"/>
		<path class="st19" d="M185.4,31.9l-0.2-1.1c-0.5,0.4-1,0.7-1.5,0.9c-0.5,0.2-1.1,0.3-1.7,0.3c-0.8,0-1.5-0.2-2-0.7
			c-0.5-0.5-0.7-1.1-0.7-2c0-0.6,0.1-1.2,0.4-1.6c0.3-0.4,0.7-0.8,1.2-1.1c0.5-0.3,1.1-0.5,1.8-0.7c0.7-0.2,1.6-0.4,2.5-0.6
			c0.1-0.7,0-1.2-0.3-1.4c-0.2-0.3-0.7-0.4-1.3-0.4c-0.5,0-0.9,0.1-1.3,0.3c-0.3,0.2-0.7,0.5-0.9,1l-1.7-1c0.4-0.7,1-1.3,1.7-1.6
			c0.7-0.3,1.5-0.5,2.3-0.5c1.3,0,2.2,0.3,2.8,0.8c0.6,0.6,0.9,1.4,0.9,2.6v4.9l0.2,1.8H185.4z M185.2,26.8
			c-0.7,0.1-1.3,0.3-1.7,0.4c-0.4,0.1-0.8,0.3-1.1,0.4c-0.5,0.3-0.7,0.8-0.7,1.4c0,0.4,0.1,0.7,0.3,0.9c0.2,0.2,0.5,0.3,0.9,0.3
			c0.4,0,0.8-0.1,1.2-0.3c0.4-0.2,0.8-0.4,1-0.8V26.8z"/>
		<path class="st19" d="M194.7,31.8c-0.3,0-0.6,0.1-0.8,0.1c-0.3,0-0.6,0-0.9,0c-0.5,0-0.9,0-1.2-0.1c-0.3-0.1-0.6-0.3-0.8-0.5
			c-0.2-0.2-0.4-0.5-0.5-0.9c-0.1-0.4-0.1-0.8-0.1-1.4v-5.4h-1.4V22h1.4v-3.3h2.3V22h2v1.8h-2v5.2c0,0.4,0.1,0.7,0.2,0.9
			c0.2,0.2,0.4,0.3,0.7,0.3c0.4,0,0.7,0,1.1-0.1V31.8z"/>
	</g>
</g>
</svg>
